{
  "homepageMenu": {
    "hamburgerMainMenu": "#nav-hamburger-menu",
    "dismissButton": "#nav-main > div.nav-left > div > div > div.glow-toaster-footer > span.a-button.a-spacing-top-base.a-button-base.glow-toaster-button.glow-toaster-button-dismiss > span > span",
    "computersMenuItem": ".hmenu.hmenu-visible > li:nth-of-type(8) > .hmenu-item",
    "computerMenuItem": "#hmenu-content > ul:nth-child(1) > li:nth-child(8)",
    "tabletAccessoriesItem": ".hmenu.hmenu-translateX.hmenu-visible > li:nth-of-type(15) > .hmenu-item"
  },
  "tabletAccessoriesPage": {
    "searchInput": "#twotabsearchtextbox",
    "searchButton": "#nav-search-submit-button",
    "sortDropdown": "select[name='s']"
  }
}